Programación SIG: Python, R y Julia - 21 Cubos Multidimensionales Vector y Raster
…
# Viento no huracanado proveniente de Excel
# Archivo: rlera5_original.xlsx
# Hoja: pp_pintar
# Lectura del archivo especificando la hoja de interés
# Nota: En la hoja origen, la primera columna actúa como identificador (cellindexlr)
# El conjunto de datos contempla un total de 12 columnas de atributos.
nhrl <- read_excel(paste0(path, "rlera5_original.xlsx"), sheet = "pp_pintar")

# Inspección inicial del objeto tibble resultante
nhrl

# A tibble: 3,381 × 12
   cellindexlr nh_10 nh_20 nh_50 nh_100 nh_250 nh_500 nh_700 nh_1000 nh_1700
         <dbl> <dbl> <dbl> <dbl>  <dbl>  <dbl>  <dbl>  <dbl>   <dbl>   <dbl>
 1           1  75.7  78.3  81.7   84.3   87.7   90.2   91.5    92.8    94.8
 2           2  76.5  78.9  82.2   84.7   87.9   90.4   91.6    92.9    94.8
 3           3  77.6  80.2  83.7   86.3   89.8   92.4   93.6    95.0    97.0
 4           4  78.4  80.9  84.3   86.9   90.3   92.8   94.1    95.4    97.4
 5           5  79.4  82.0  85.5   88.2   91.7   94.3   95.6    96.9    99.0
 6           6  80.1  82.7  86.2   88.8   92.3   94.9   96.1    97.5    99.5
 7           7  80.6  83.1  86.5   89.0   92.4   94.9   96.1    97.4    99.4
 8           8  81.3  83.8  87.2   89.7   93.0   95.5   96.7    98.0    99.9
 9           9  82.2  84.7  88.0   90.6   93.9   96.4   97.6    98.9   101. 
10          10  82.5  85.0  88.3   90.7   94.0   96.5   97.7    98.9   101. 
# ℹ 3,371 more rows
# ℹ 2 more variables: nh_3000 <dbl>, nh_7000 <dbl>
…
